#Insight Transform File V1.0
#Transform 0
Transform: MatrixOffsetTransformBase_double_2_2
Parameters: 1.0431408426717907 -0.03481148339628068 0.031206049377092697 0.9809316061784111 0.8277419437078176 0.342140803019399
FixedParameters: -0.11491111858062854 1.7151972315978055
