#Insight Transform File V1.0
#Transform 0
Transform: MatrixOffsetTransformBase_double_2_2
Parameters: 1.0773088469280345 -0.0235683510182479 0.014171354654634451 0.9152111250269522 -0.22979391312677175 0.6408854089896806
FixedParameters: -0.11491111858062854 1.7151972315978055
