#Insight Transform File V1.0
#Transform 0
Transform: MatrixOffsetTransformBase_double_2_2
Parameters: 1.0048859824905145 0.009156734912935558 -0.0036139374815917966 0.9871953835889082 0.6659688129325636 -1.2168226414720313
FixedParameters: -0.11491111858062854 1.7151972315978055
