#Insight Transform File V1.0
#Transform 0
Transform: MatrixOffsetTransformBase_double_2_2
Parameters: 0.8911842365642146 -0.0005436822339690839 0.014397228127872244 0.9665977556714997 -0.6453173371466197 1.099115001427441
FixedParameters: -0.11491111858062854 1.7151972315978055
