#Insight Transform File V1.0
#Transform 0
Transform: MatrixOffsetTransformBase_double_2_2
Parameters: 1.0437806905213491 0.02060403376855497 0.030344437851172145 0.9044643310783009 -0.943546850476113 1.0722428506217694
FixedParameters: -0.11491111858062854 1.7151972315978055
