#Insight Transform File V1.0
#Transform 0
Transform: MatrixOffsetTransformBase_double_2_2
Parameters: 0.9032990273232275 0.0068961722607774785 -0.011222582419639752 1.0050722827359164 -0.3787939634263523 0.4127651357400003
FixedParameters: -0.11491111858062854 1.7151972315978055
