#Insight Transform File V1.0
#Transform 0
Transform: MatrixOffsetTransformBase_double_2_2
Parameters: 1.070821325579972 -0.021696445274790345 0.01336273412670905 0.9341186524489182 -0.35397517501770237 0.6017941449905367
FixedParameters: -0.11491111858062854 1.7151972315978055
